{
  "defaultSeverity": "error",
  "extends": [
    "tslint:recommended"
  ],
  "jsRules": {},
  "rules": {
    "quotemark": [
      true,
      "single",
      "jsx-double",
      "avoid-escape"
    ],
    "variable-name": [
      true,
      "check-format",
      "allow-leading-underscore"
    ]
  },
  "rulesDirectory": []
}
